
 START: COMPANY Import ===> 09-08-2014 01:26:45:021 --> Fractional Seconds Digit: 021718000000
 END: COMPANY Import ===> 09-08-2014 01:26:45:239 --> Fractional Seconds Digit: 239198000000

 START: BRANCH Import ===> 09-08-2014 01:26:45:267 --> Fractional Seconds Digit: 267793000000
 END: BRANCH Import ===> 09-08-2014 01:26:45:995 --> Fractional Seconds Digit: 995963000000

 START: SUPPLIER Import ===> 09-08-2014 01:26:46:024 --> Fractional Seconds Digit: 024355000000
 END: SUPPLIER Import ===> 09-08-2014 01:26:46:197 --> Fractional Seconds Digit: 197286000000

 START: PRODUCT Import ===> 09-08-2014 01:26:46:222 --> Fractional Seconds Digit: 222795000000
 END: PRODUCT Import ===> 09-08-2014 01:26:47:424 --> Fractional Seconds Digit: 424408000000

 START: PRODUCT UNIT Import ===> 09-08-2014 01:26:47:456 --> Fractional Seconds Digit: 456491000000
 END: PRODUCT UNIT Import ===> 09-08-2014 01:26:48:109 --> Fractional Seconds Digit: 109832000000

 START: SUPPLIER PRODUCTS Import ===> 09-08-2014 01:26:48:125 --> Fractional Seconds Digit: 125909000000
 END: SUPPLIER PRODUCTS Import ===> 09-08-2014 01:26:48:445 --> Fractional Seconds Digit: 445572000000

 START: BRANCH PRODUCTS Import ===> 09-08-2014 01:26:48:457 --> Fractional Seconds Digit: 457669000000
 END: BRACH PRODUCTS Import ===> 09-08-2014 01:26:49:484 --> Fractional Seconds Digit: 484542000000

 START: INVENTORY MOV Import ===> 09-08-2014 01:26:49:485 --> Fractional Seconds Digit: 485215000000
 END: INVENTORY MOV Import ===> 09-08-2014 01:26:49:623 --> Fractional Seconds Digit: 623410000000

 START: SALES INV ===> 09-08-2014 01:26:49:634 --> Fractional Seconds Digit: 634624000000
 END: SALES INV Import ===> 09-08-2014 01:26:49:719 --> Fractional Seconds Digit: 719361000000
 START: COMPANY Import ===> 09-08-2014 01:44:02:112 --> Fractional Seconds Digit: 112131000000
 END: COMPANY Import ===> 09-08-2014 01:44:02:330 --> Fractional Seconds Digit: 330568000000
 START: BRANCH Import ===> 09-08-2014 01:44:02:370 --> Fractional Seconds Digit: 370379000000
 END: BRANCH Import ===> 09-08-2014 01:44:03:898 --> Fractional Seconds Digit: 898644000000
 START: SUPPLIER Import ===> 09-08-2014 01:44:03:915 --> Fractional Seconds Digit: 915822000000
 END: SUPPLIER Import ===> 09-08-2014 01:44:04:194 --> Fractional Seconds Digit: 194971000000
 START: PRODUCT Import ===> 09-08-2014 01:44:04:224 --> Fractional Seconds Digit: 224740000000
 END: PRODUCT Import ===> 09-08-2014 01:44:05:404 --> Fractional Seconds Digit: 404044000000
 START: PRODUCT UNIT Import ===> 09-08-2014 01:44:05:436 --> Fractional Seconds Digit: 436060000000
 END: PRODUCT UNIT Import ===> 09-08-2014 01:44:06:024 --> Fractional Seconds Digit: 024558000000
 START: SUPPLIER PRODUCTS Import ===> 09-08-2014 01:44:06:038 --> Fractional Seconds Digit: 038834000000
 END: SUPPLIER PRODUCTS Import ===> 09-08-2014 01:44:06:374 --> Fractional Seconds Digit: 374713000000
 START: BRANCH PRODUCTS Import ===> 09-08-2014 01:44:06:393 --> Fractional Seconds Digit: 393202000000
 END: BRACH PRODUCTS Import ===> 09-08-2014 01:44:08:079 --> Fractional Seconds Digit: 079857000000
 START: INVENTORY MOV Import ===> 09-08-2014 01:44:08:080 --> Fractional Seconds Digit: 080525000000
 END: INVENTORY MOV Import ===> 09-08-2014 01:44:08:203 --> Fractional Seconds Digit: 203999000000
 START: SALES INV ===> 09-08-2014 01:44:08:237 --> Fractional Seconds Digit: 237076000000
 END: SALES INV Import ===> 09-08-2014 01:44:08:288 --> Fractional Seconds Digit: 288258000000
 START: COMPANY Import ===> 09-08-2014 01:46:16:460 --> Fractional Seconds Digit: 460958000000
 END: COMPANY Import ===> 09-08-2014 01:46:16:507 --> Fractional Seconds Digit: 507064000000
 START: BRANCH Import ===> 09-08-2014 01:46:16:540 --> Fractional Seconds Digit: 540821000000
 END: BRANCH Import ===> 09-08-2014 01:46:17:215 --> Fractional Seconds Digit: 215496000000
 START: SUPPLIER Import ===> 09-08-2014 01:46:17:241 --> Fractional Seconds Digit: 241913000000
 END: SUPPLIER Import ===> 09-08-2014 01:46:17:338 --> Fractional Seconds Digit: 338034000000
 START: PRODUCT Import ===> 09-08-2014 01:46:17:340 --> Fractional Seconds Digit: 340144000000
 END: PRODUCT Import ===> 09-08-2014 01:46:18:537 --> Fractional Seconds Digit: 537858000000
 START: PRODUCT UNIT Import ===> 09-08-2014 01:46:18:562 --> Fractional Seconds Digit: 562963000000
 END: PRODUCT UNIT Import ===> 09-08-2014 01:46:19:222 --> Fractional Seconds Digit: 222386000000
 START: SUPPLIER PRODUCTS Import ===> 09-08-2014 01:46:19:231 --> Fractional Seconds Digit: 231732000000
 END: SUPPLIER PRODUCTS Import ===> 09-08-2014 01:46:19:460 --> Fractional Seconds Digit: 460292000000
 START: BRANCH PRODUCTS Import ===> 09-08-2014 01:46:19:462 --> Fractional Seconds Digit: 462504000000
 END: BRACH PRODUCTS Import ===> 09-08-2014 01:46:20:492 --> Fractional Seconds Digit: 492323000000
 START: INVENTORY MOV Import ===> 09-08-2014 01:46:20:501 --> Fractional Seconds Digit: 501799000000
 END: INVENTORY MOV Import ===> 09-08-2014 01:46:20:680 --> Fractional Seconds Digit: 680512000000
 START: SALES INV ===> 09-08-2014 01:46:20:682 --> Fractional Seconds Digit: 682406000000
 END: SALES INV Import ===> 09-08-2014 01:46:20:753 --> Fractional Seconds Digit: 753706000000
 START: COMPANY Import ===> 09-08-2014 01:48:34:736 --> Fractional Seconds Digit: 736162000000
 END: COMPANY Import ===> 09-08-2014 01:48:34:775 --> Fractional Seconds Digit: 775136000000
 START: BRANCH Import ===> 09-08-2014 01:48:34:777 --> Fractional Seconds Digit: 777123000000
 END: BRANCH Import ===> 09-08-2014 01:48:35:734 --> Fractional Seconds Digit: 734530000000
 START: SUPPLIER Import ===> 09-08-2014 01:48:35:736 --> Fractional Seconds Digit: 736553000000
 END: SUPPLIER Import ===> 09-08-2014 01:48:35:862 --> Fractional Seconds Digit: 862193000000
 START: PRODUCT Import ===> 09-08-2014 01:48:35:864 --> Fractional Seconds Digit: 864367000000
 END: PRODUCT Import ===> 09-08-2014 01:48:39:296 --> Fractional Seconds Digit: 296634000000
 START: PRODUCT UNIT Import ===> 09-08-2014 01:48:39:298 --> Fractional Seconds Digit: 298763000000
 END: PRODUCT UNIT Import ===> 09-08-2014 01:48:39:883 --> Fractional Seconds Digit: 883729000000
 START: SUPPLIER PRODUCTS Import ===> 09-08-2014 01:48:40:001 --> Fractional Seconds Digit: 001654000000
 END: SUPPLIER PRODUCTS Import ===> 09-08-2014 01:48:40:270 --> Fractional Seconds Digit: 270804000000
 START: BRANCH PRODUCTS Import ===> 09-08-2014 01:48:40:275 --> Fractional Seconds Digit: 275699000000
 END: BRACH PRODUCTS Import ===> 09-08-2014 01:48:43:708 --> Fractional Seconds Digit: 708683000000
 START: INVENTORY MOV Import ===> 09-08-2014 01:48:43:869 --> Fractional Seconds Digit: 869382000000
 END: INVENTORY MOV Import ===> 09-08-2014 01:48:44:474 --> Fractional Seconds Digit: 474695000000
 START: SALES INV ===> 09-08-2014 01:48:44:476 --> Fractional Seconds Digit: 476868000000
 END: SALES INV Import ===> 09-08-2014 01:48:44:777 --> Fractional Seconds Digit: 777199000000
 START: COMPANY Import ===> 09-08-2014 02:54:21:769 --> Fractional Seconds Digit: 769619000000
 END: COMPANY Import ===> 09-08-2014 02:54:21:830 --> Fractional Seconds Digit: 830792000000
 START: BRANCH Import ===> 09-08-2014 02:54:21:831 --> Fractional Seconds Digit: 831691000000
 END: BRANCH Import ===> 09-08-2014 02:54:22:234 --> Fractional Seconds Digit: 234944000000
 START: SUPPLIER Import ===> 09-08-2014 02:54:22:235 --> Fractional Seconds Digit: 235710000000
 END: SUPPLIER Import ===> 09-08-2014 02:54:22:307 --> Fractional Seconds Digit: 307402000000
 START: PRODUCT Import ===> 09-08-2014 02:54:22:308 --> Fractional Seconds Digit: 308321000000
 END: PRODUCT Import ===> 09-08-2014 02:54:22:927 --> Fractional Seconds Digit: 927630000000
 START: PRODUCT UNIT Import ===> 09-08-2014 02:54:22:928 --> Fractional Seconds Digit: 928379000000
 END: PRODUCT UNIT Import ===> 09-08-2014 02:54:23:335 --> Fractional Seconds Digit: 335231000000
 START: SUPPLIER PRODUCTS Import ===> 09-08-2014 02:54:23:336 --> Fractional Seconds Digit: 336060000000
 END: SUPPLIER PRODUCTS Import ===> 09-08-2014 02:54:23:456 --> Fractional Seconds Digit: 456353000000
 START: BRANCH PRODUCTS Import ===> 09-08-2014 02:54:23:457 --> Fractional Seconds Digit: 457207000000
 END: BRACH PRODUCTS Import ===> 09-08-2014 02:54:24:417 --> Fractional Seconds Digit: 417318000000
 START: INVENTORY MOV Import ===> 09-08-2014 02:54:24:417 --> Fractional Seconds Digit: 417756000000
 END: INVENTORY MOV Import ===> 09-08-2014 02:54:24:549 --> Fractional Seconds Digit: 549182000000
 START: SALES INV ===> 09-08-2014 02:54:24:550 --> Fractional Seconds Digit: 550050000000
 END: SALES INV Import ===> 09-08-2014 02:54:24:619 --> Fractional Seconds Digit: 619586000000